%!PS-Adobe-2.0
%%Title: /direct/star+u/fazio/vbasym/macros/curves/evo.ps: c1
%%Creator: ROOT Version 5.22/00
%%CreationDate: Mon Dec 30 18:17:05 2013
%%Orientation: Landscape
%%EndComments
%%BeginProlog
/s {stroke} def /l {lineto} def /m {moveto} def /t {translate} def
/sw {stringwidth} def /r {rotate} def /rl {roll}  def /R {repeat} def
/d {rlineto} def /rm {rmoveto} def /gr {grestore} def /f {eofill} def
/c {setrgbcolor} def /black {0 setgray} def /sd {setdash} def
/cl {closepath} def /sf {scalefont setfont} def /lw {setlinewidth} def
/box {m dup 0 exch d exch 0 d 0 exch neg d cl} def
/NC{systemdict begin initclip end}def/C{NC box clip newpath}def
/bl {box s} def /bf {box f} def /Y { 0 exch d} def /X { 0 d} def 
/mp {newpath /y exch def /x exch def} def
/side {[w .77 mul w .23 mul] .385 w mul sd w 0 l currentpoint t -144 r} def
/mr {mp x y w2 0 360 arc} def /m24 {mr s} def /m20 {mr f} def
/mb {mp x y w2 add m w2 neg 0 d 0 w neg d w 0 d 0 w d cl} def
/mt {mp x y w2 add m w2 neg w neg d w 0 d cl} def
/m21 {mb f} def /m25 {mb s} def /m22 {mt f} def /m26{mt s} def
/m23 {mp x y w2 sub m w2 w d w neg 0 d cl f} def
/m27 {mp x y w2 add m w3 neg w2 neg d w3 w2 neg d w3 w2 d cl s} def
/m28 {mp x w2 sub y w2 sub w3 add m w3 0 d  0 w3 neg d w3 0 d 0 w3 d w3 0 d  0 w3 d w3 neg 0 d 0 w3 d w3 neg 0 d
 0 w3 neg d w3 neg 0 d cl s } def
/m29 {mp gsave x w2 sub y w2 add w3 sub m currentpoint t
 4 {side} repeat cl fill gr} def
/m30 {mp gsave x w2 sub y w2 add w3 sub m currentpoint t
 4 {side} repeat cl s gr} def
/m31 {mp x y w2 sub m 0 w d x w2 sub y m w 0 d x w2 sub y w2 add m w w neg d x w2 sub y w2
 sub m w w d s} def
/m2 {mp x y w2 sub m 0 w d x w2 sub y m w 0 d s} def
/m5 {mp x w2 sub y w2 sub m w w d x w2 sub y w2 add m w w neg d s} def
/reEncode {exch findfont dup length dict begin {1 index /FID eq  {pop pop} {def} ifelse } forall /Encoding exch def currentdict end dup /FontName get exch definefont pop } def [/Times-Bold /Times-Italic /Times-BoldItalic /Helvetica
 /Helvetica-Oblique /Helvetica-Bold /Helvetica-BoldOblique /Courier /Courier-Oblique /Courier-Bold /Courier-BoldOblique /Times-Roman /AvantGarde-Book /AvantGarde-BookOblique /AvantGarde-Demi /AvantGarde-DemiOblique /Bookman-Demi
 /Bookman-DemiItalic /Bookman-Light /Bookman-LightItalic /Helvetica-Narrow /Helvetica-Narrow-Bold /Helvetica-Narrow-BoldOblique /Helvetica-Narrow-Oblique /NewCenturySchlbk-Roman /NewCenturySchlbk-Bold
 /NewCenturySchlbk-BoldItalic /NewCenturySchlbk-Italic /Palatino-Bold /Palatino-BoldItalic /Palatino-Italic /Palatino-Roman ] {ISOLatin1Encoding reEncode } forall
/oshow {gsave [] 0 sd true charpath stroke gr} def
/stwn { /fs exch def /fn exch def /text exch def fn findfont fs sf
 text sw pop xs add /xs exch def} def
/stwb { /fs exch def /fn exch def /nbas exch def /textf exch deftextf length /tlen exch def nbas tlen gt {/nbas tlendef} iffn findfont fs sf textf dup length nbas sub nbas getinterval sw
pop neg xs add /xs exch def} def
/Zone {/iy exch def /ix exch def  ix 1 sub  3144 mul  1 iy sub  2224
 mul t} def
%%EndProlog
%%BeginSetup
%%EndSetup
newpath  gsave  90 r 0 -594 t  28 20 t .25 .25 scale  gsave 
%%Page: 1 1
 gsave  gsave 
 1 1 Zone
 gsave  0 0 t black[  ] 0 sd 3 lw 0.999 0.999 0.999 c 2721 1845 0 0 bf black
 gsave  2721 1845 0 0 C 27 18 t 0 r /Helvetica-Bold findfont 43.0084 sf 0 0 m (Mon Dec 30 18:17:05 2013) show NC gr  0.999 0.999 0.999 c 2177 1476 272 185 bf black 2177 1476 272 185 bl 0.999 0.999 0.999 c 2177 1476 272 185 bf black 2177 1476 272 185
 bl 272 185 m 2177 X s[ 4 8] 0 sd 361 1661 m -1476 Y s 583 1661 m -1476 Y s 805 1661 m -1476 Y s 1027 1661 m -1476 Y s 1250 1661 m -1476 Y s 1472 1661 m -1476 Y s 1694 1661 m -1476 Y s 1916 1661 m -1476 Y s 2138 1661 m -1476 Y s 2360 1661 m -1476 Y
 s 361 1661 m -1476 Y s 2360 1661 m -1476 Y s[  ] 0 sd 272 185 m 1476 Y s[ 4 8] 0 sd 2449 185 m -2177 X s 2449 404 m -2177 X s 2449 624 m -2177 X s 2449 844 m -2177 X s 2449 1063 m -2177 X s 2449 1283 m -2177 X s 2449 1503 m -2177 X s 2449 1503 m
 -2177 X s[  ] 0 sd 1 1 1 c black 272 185 m 131 X 87 Y 22 X 286 Y 21 X -44 Y 22 X 154 Y 22 X -88 Y 22 X 417 Y 21 X 330 Y 22 X -242 Y 22 X -22 Y 22 X 66 Y 21 X -395 Y 22 X 329 Y 22 X -153 Y 22 X 197 Y 22 X 66 Y 21 X 88 Y 22 X 330 Y 22 X -572 Y 22 X
 -834 Y 196 X 22 Y 21 X -22 Y 1241 X 22 Y 22 X -22 Y 174 X s 0.999 0.999 0.999 c 544 664 2123 1172 bf black 2123 1172 m 544 X s 2667 1172 m 664 Y s 2667 1836 m -544 X s 2123 1836 m -664 Y s
 gsave  2721 1845 0 0 C 2147 1759 t 0 r /Helvetica-Bold findfont 54.738 sf 0 0 m (Entries ) show NC gr 
 gsave  2721 1845 0 0 C 2534 1759 t 0 r /Helvetica-Bold findfont 54.738 sf 0 0 m ( 627) show NC gr 
 gsave  2721 1845 0 0 C 2147 1650 t 0 r /Helvetica-Bold findfont 54.738 sf 0 0 m (Mean  ) show NC gr 
 gsave  2721 1845 0 0 C 2408 1650 t 0 r /Helvetica-Bold findfont 54.738 sf 0 0 m ( \2550.00754) show NC gr 
 gsave  2721 1845 0 0 C 2147 1537 t 0 r /Helvetica-Bold findfont 54.738 sf 0 0 m (RMS   ) show NC gr 
 gsave  2721 1845 0 0 C 2397 1537 t 0 r /Helvetica-Bold findfont 54.738 sf 0 0 m ( 0.005437) show NC gr 
 gsave  2721 1845 0 0 C 2147 1427 t 0 r /Helvetica-Bold findfont 54.738 sf 0 0 m (Underflow ) show NC gr 
 gsave  2721 1845 0 0 C 2518 1427 t 0 r /Helvetica-Bold findfont 54.738 sf 0 0 m (      0) show NC gr 
 gsave  2721 1845 0 0 C 2147 1318 t 0 r /Helvetica-Bold findfont 54.738 sf 0 0 m (Overflow  ) show NC gr 
 gsave  2721 1845 0 0 C 2518 1318 t 0 r /Helvetica-Bold findfont 54.738 sf 0 0 m (      0) show NC gr 
 gsave  2721 1845 0 0 C 2147 1208 t 0 r /Helvetica-Bold findfont 54.738 sf 0 0 m (Integral ) show NC gr 
 gsave  2721 1845 0 0 C 2487 1204 t 0 r /Helvetica-Bold findfont 54.738 sf 0 0 m (    627) show NC gr  272 185 m 2177 X s
 gsave  2721 1845 0 0 C 2369 23 t 0 r /Helvetica-Bold findfont 70.3774 sf 0 0 m (an) show NC gr  361 229 m -44 Y s 405 207 m -22 Y s 450 207 m -22 Y s 494 207 m -22 Y s 539 207 m -22 Y s 583 229 m -44 Y s 628 207 m -22 Y s 672 207 m -22 Y s 716 207
 m -22 Y s 761 207 m -22 Y s 805 229 m -44 Y s 850 207 m -22 Y s 894 207 m -22 Y s 939 207 m -22 Y s 983 207 m -22 Y s 1027 229 m -44 Y s 1072 207 m -22 Y s 1116 207 m -22 Y s 1161 207 m -22 Y s 1205 207 m -22 Y s 1250 229 m -44 Y s 1294 207 m -22 Y
 s 1338 207 m -22 Y s 1383 207 m -22 Y s 1427 207 m -22 Y s 1472 229 m -44 Y s 1516 207 m -22 Y s 1561 207 m -22 Y s 1605 207 m -22 Y s 1649 207 m -22 Y s 1694 229 m -44 Y s 1738 207 m -22 Y s 1783 207 m -22 Y s 1827 207 m -22 Y s 1872 207 m -22 Y s
 1916 229 m -44 Y s 1960 207 m -22 Y s 2005 207 m -22 Y s 2049 207 m -22 Y s 2094 207 m -22 Y s 2138 229 m -44 Y s 2183 207 m -22 Y s 2227 207 m -22 Y s 2271 207 m -22 Y s 2316 207 m -22 Y s 2360 229 m -44 Y s 361 229 m -44 Y s 317 207 m -22 Y s 272
 207 m -22 Y s 2360 229 m -44 Y s 2405 207 m -22 Y s
 gsave  2721 1845 0 0 C 278 117 t 0 r /Helvetica-Bold findfont 70.3774 sf 0 0 m (\2550.02) show NC gr 
 gsave  2721 1845 0 0 C 504 117 t 0 r /Helvetica-Bold findfont 70.3774 sf 0 0 m (\2550.01) show NC gr 
 gsave  2721 1845 0 0 C 782 117 t 0 r /Helvetica-Bold findfont 70.3774 sf 0 0 m (0) show NC gr 
 gsave  2721 1845 0 0 C 958 117 t 0 r /Helvetica-Bold findfont 70.3774 sf 0 0 m (0.01) show NC gr 
 gsave  2721 1845 0 0 C 1177 117 t 0 r /Helvetica-Bold findfont 70.3774 sf 0 0 m (0.02) show NC gr 
 gsave  2721 1845 0 0 C 1400 117 t 0 r /Helvetica-Bold findfont 70.3774 sf 0 0 m (0.03) show NC gr 
 gsave  2721 1845 0 0 C 1623 117 t 0 r /Helvetica-Bold findfont 70.3774 sf 0 0 m (0.04) show NC gr 
 gsave  2721 1845 0 0 C 1845 117 t 0 r /Helvetica-Bold findfont 70.3774 sf 0 0 m (0.05) show NC gr 
 gsave  2721 1845 0 0 C 2064 117 t 0 r /Helvetica-Bold findfont 70.3774 sf 0 0 m (0.06) show NC gr 
 gsave  2721 1845 0 0 C 2287 117 t 0 r /Helvetica-Bold findfont 70.3774 sf 0 0 m (0.07) show NC gr  272 185 m 1476 Y s 337 185 m -65 X s 305 228 m -33 X s 305 272 m -33 X s 305 316 m -33 X s 305 360 m -33 X s 337 404 m -65 X s 305 448 m -33 X s 305
 492 m -33 X s 305 536 m -33 X s 305 580 m -33 X s 337 624 m -65 X s 305 668 m -33 X s 305 712 m -33 X s 305 756 m -33 X s 305 800 m -33 X s 337 844 m -65 X s 305 888 m -33 X s 305 932 m -33 X s 305 975 m -33 X s 305 1019 m -33 X s 337 1063 m -65 X
 s 305 1107 m -33 X s 305 1151 m -33 X s 305 1195 m -33 X s 305 1239 m -33 X s 337 1283 m -65 X s 305 1327 m -33 X s 305 1371 m -33 X s 305 1415 m -33 X s 305 1459 m -33 X s 337 1503 m -65 X s 337 1503 m -65 X s 305 1547 m -33 X s 305 1591 m -33 X s
 305 1635 m -33 X s
 gsave  2721 1845 0 0 C 219 160 t 0 r /Helvetica-Bold findfont 70.3774 sf 0 0 m (0) show NC gr 
 gsave  2721 1845 0 0 C 180 379 t 0 r /Helvetica-Bold findfont 70.3774 sf 0 0 m (10) show NC gr 
 gsave  2721 1845 0 0 C 180 598 t 0 r /Helvetica-Bold findfont 70.3774 sf 0 0 m (20) show NC gr 
 gsave  2721 1845 0 0 C 180 817 t 0 r /Helvetica-Bold findfont 70.3774 sf 0 0 m (30) show NC gr 
 gsave  2721 1845 0 0 C 180 1036 t 0 r /Helvetica-Bold findfont 70.3774 sf 0 0 m (40) show NC gr 
 gsave  2721 1845 0 0 C 180 1259 t 0 r /Helvetica-Bold findfont 70.3774 sf 0 0 m (50) show NC gr 
 gsave  2721 1845 0 0 C 180 1478 t 0 r /Helvetica-Bold findfont 70.3774 sf 0 0 m (60) show NC gr  0.999 0.999 0.999 c 544 664 2123 1172 bf black 2123 1172 m 544 X s 2667 1172 m 664 Y s 2667 1836 m -544 X s 2123 1836 m -664 Y s
 gsave  2721 1845 0 0 C 2147 1759 t 0 r /Helvetica-Bold findfont 54.738 sf 0 0 m (Entries ) show NC gr 
 gsave  2721 1845 0 0 C 2534 1759 t 0 r /Helvetica-Bold findfont 54.738 sf 0 0 m ( 627) show NC gr 
 gsave  2721 1845 0 0 C 2147 1650 t 0 r /Helvetica-Bold findfont 54.738 sf 0 0 m (Mean  ) show NC gr 
 gsave  2721 1845 0 0 C 2408 1650 t 0 r /Helvetica-Bold findfont 54.738 sf 0 0 m ( \2550.00754) show NC gr 
 gsave  2721 1845 0 0 C 2147 1537 t 0 r /Helvetica-Bold findfont 54.738 sf 0 0 m (RMS   ) show NC gr 
 gsave  2721 1845 0 0 C 2397 1537 t 0 r /Helvetica-Bold findfont 54.738 sf 0 0 m ( 0.005437) show NC gr 
 gsave  2721 1845 0 0 C 2147 1427 t 0 r /Helvetica-Bold findfont 54.738 sf 0 0 m (Underflow ) show NC gr 
 gsave  2721 1845 0 0 C 2518 1427 t 0 r /Helvetica-Bold findfont 54.738 sf 0 0 m (      0) show NC gr 
 gsave  2721 1845 0 0 C 2147 1318 t 0 r /Helvetica-Bold findfont 54.738 sf 0 0 m (Overflow  ) show NC gr 
 gsave  2721 1845 0 0 C 2518 1318 t 0 r /Helvetica-Bold findfont 54.738 sf 0 0 m (      0) show NC gr 
 gsave  2721 1845 0 0 C 2147 1208 t 0 r /Helvetica-Bold findfont 54.738 sf 0 0 m (Integral ) show NC gr 
 gsave  2721 1845 0 0 C 2487 1204 t 0 r /Helvetica-Bold findfont 54.738 sf 0 0 m (    627) show NC gr  0.999 0.999 0.999 c 817 103 27 1733 bf black 27 1733 m 817 X s 844 1733 m 103 Y s 844 1836 m -817 X s 27 1836 m -103 Y s 1 1 1 c black
 gsave  2721 1845 0 0 C 70 1763 t 0 r /Helvetica-Bold findfont 82.107 sf 0 0 m (an {abs\(an\)>0.001}) show NC gr  gr 
showpage
 gr 
%%Trailer
%%Pages:  1
 gr  gr  gr 
%%EOF
