%!PS-Adobe-2.0
%%Title: /direct/star+u/fazio/vbasym/macros/curves/noevo.ps: c1
%%Creator: ROOT Version 5.22/00
%%CreationDate: Mon Dec 30 18:16:32 2013
%%Orientation: Landscape
%%EndComments
%%BeginProlog
/s {stroke} def /l {lineto} def /m {moveto} def /t {translate} def
/sw {stringwidth} def /r {rotate} def /rl {roll}  def /R {repeat} def
/d {rlineto} def /rm {rmoveto} def /gr {grestore} def /f {eofill} def
/c {setrgbcolor} def /black {0 setgray} def /sd {setdash} def
/cl {closepath} def /sf {scalefont setfont} def /lw {setlinewidth} def
/box {m dup 0 exch d exch 0 d 0 exch neg d cl} def
/NC{systemdict begin initclip end}def/C{NC box clip newpath}def
/bl {box s} def /bf {box f} def /Y { 0 exch d} def /X { 0 d} def 
/mp {newpath /y exch def /x exch def} def
/side {[w .77 mul w .23 mul] .385 w mul sd w 0 l currentpoint t -144 r} def
/mr {mp x y w2 0 360 arc} def /m24 {mr s} def /m20 {mr f} def
/mb {mp x y w2 add m w2 neg 0 d 0 w neg d w 0 d 0 w d cl} def
/mt {mp x y w2 add m w2 neg w neg d w 0 d cl} def
/m21 {mb f} def /m25 {mb s} def /m22 {mt f} def /m26{mt s} def
/m23 {mp x y w2 sub m w2 w d w neg 0 d cl f} def
/m27 {mp x y w2 add m w3 neg w2 neg d w3 w2 neg d w3 w2 d cl s} def
/m28 {mp x w2 sub y w2 sub w3 add m w3 0 d  0 w3 neg d w3 0 d 0 w3 d w3 0 d  0 w3 d w3 neg 0 d 0 w3 d w3 neg 0 d
 0 w3 neg d w3 neg 0 d cl s } def
/m29 {mp gsave x w2 sub y w2 add w3 sub m currentpoint t
 4 {side} repeat cl fill gr} def
/m30 {mp gsave x w2 sub y w2 add w3 sub m currentpoint t
 4 {side} repeat cl s gr} def
/m31 {mp x y w2 sub m 0 w d x w2 sub y m w 0 d x w2 sub y w2 add m w w neg d x w2 sub y w2
 sub m w w d s} def
/m2 {mp x y w2 sub m 0 w d x w2 sub y m w 0 d s} def
/m5 {mp x w2 sub y w2 sub m w w d x w2 sub y w2 add m w w neg d s} def
/reEncode {exch findfont dup length dict begin {1 index /FID eq  {pop pop} {def} ifelse } forall /Encoding exch def currentdict end dup /FontName get exch definefont pop } def [/Times-Bold /Times-Italic /Times-BoldItalic /Helvetica
 /Helvetica-Oblique /Helvetica-Bold /Helvetica-BoldOblique /Courier /Courier-Oblique /Courier-Bold /Courier-BoldOblique /Times-Roman /AvantGarde-Book /AvantGarde-BookOblique /AvantGarde-Demi /AvantGarde-DemiOblique /Bookman-Demi
 /Bookman-DemiItalic /Bookman-Light /Bookman-LightItalic /Helvetica-Narrow /Helvetica-Narrow-Bold /Helvetica-Narrow-BoldOblique /Helvetica-Narrow-Oblique /NewCenturySchlbk-Roman /NewCenturySchlbk-Bold
 /NewCenturySchlbk-BoldItalic /NewCenturySchlbk-Italic /Palatino-Bold /Palatino-BoldItalic /Palatino-Italic /Palatino-Roman ] {ISOLatin1Encoding reEncode } forall
/oshow {gsave [] 0 sd true charpath stroke gr} def
/stwn { /fs exch def /fn exch def /text exch def fn findfont fs sf
 text sw pop xs add /xs exch def} def
/stwb { /fs exch def /fn exch def /nbas exch def /textf exch deftextf length /tlen exch def nbas tlen gt {/nbas tlendef} iffn findfont fs sf textf dup length nbas sub nbas getinterval sw
pop neg xs add /xs exch def} def
/Zone {/iy exch def /ix exch def  ix 1 sub  3144 mul  1 iy sub  2224
 mul t} def
%%EndProlog
%%BeginSetup
%%EndSetup
newpath  gsave  90 r 0 -594 t  28 20 t .25 .25 scale  gsave 
%%Page: 1 1
 gsave  gsave 
 1 1 Zone
 gsave  0 0 t black[  ] 0 sd 3 lw 0.999 0.999 0.999 c 2721 1845 0 0 bf black
 gsave  2721 1845 0 0 C 27 18 t 0 r /Helvetica-Bold findfont 43.0084 sf 0 0 m (Mon Dec 30 18:16:32 2013) show NC gr  0.999 0.999 0.999 c 2177 1476 272 185 bf black 2177 1476 272 185 bl 0.999 0.999 0.999 c 2177 1476 272 185 bf black 2177 1476 272 185
 bl 272 185 m 2177 X s[ 4 8] 0 sd 368 1661 m -1476 Y s 688 1661 m -1476 Y s 1008 1661 m -1476 Y s 1329 1661 m -1476 Y s 1649 1661 m -1476 Y s 1969 1661 m -1476 Y s 2289 1661 m -1476 Y s 368 1661 m -1476 Y s 2289 1661 m -1476 Y s[  ] 0 sd 272 185 m
 1476 Y s[ 4 8] 0 sd 2449 185 m -2177 X s 2449 360 m -2177 X s 2449 536 m -2177 X s 2449 712 m -2177 X s 2449 888 m -2177 X s 2449 1063 m -2177 X s 2449 1239 m -2177 X s 2449 1415 m -2177 X s 2449 1591 m -2177 X s 2449 1591 m -2177 X s[  ] 0 sd 1 1
 1 c black 272 185 m 153 X 87 Y 65 X -87 Y 22 X 87 Y 21 X -87 Y 22 X 87 Y 22 X -87 Y 65 X 263 Y 22 X 88 Y 22 X -264 Y 43 X 88 Y 22 X -88 Y 44 X 176 Y 21 X -88 Y 22 X -175 Y 65 X 351 Y 22 X -264 Y 22 X -87 Y 22 X 351 Y 22 X -88 Y 21 X -88 Y 22 X -175
 Y 22 X 351 Y 22 X -351 Y 21 X 351 Y 22 X -351 Y 22 X 175 Y 22 X -88 Y 21 X 528 Y 22 X -88 Y 22 X -264 Y 22 X 176 Y 22 X 88 Y 21 X 879 Y 44 X -440 Y 43 X -879 Y 22 X 264 Y 22 X 88 Y 22 X 176 Y 21 X -528 Y 22 X 176 Y 22 X -263 Y 44 X 351 Y 21 X -264
 Y 22 X 88 Y 44 X 176 Y 21 X -176 Y 22 X 176 Y 22 X -351 Y 22 X 87 Y 21 X 264 Y 22 X -264 Y 44 X 88 Y 109 X 88 Y 43 X -88 Y 22 X 176 Y 44 X 176 Y 21 X -527 Y 22 X 87 Y 22 X -87 Y 22 X 87 Y 65 X -87 Y 22 X 175 Y 21 X -88 Y 22 X 88 Y 22 X -88 Y 22 X
 -87 Y 152 X s 0.999 0.999 0.999 c 544 664 2123 1172 bf black 2123 1172 m 544 X s 2667 1172 m 664 Y s 2667 1836 m -544 X s 2123 1836 m -664 Y s
 gsave  2721 1845 0 0 C 2147 1759 t 0 r /Helvetica-Bold findfont 54.738 sf 0 0 m (Entries ) show NC gr 
 gsave  2721 1845 0 0 C 2534 1759 t 0 r /Helvetica-Bold findfont 54.738 sf 0 0 m ( 218) show NC gr 
 gsave  2721 1845 0 0 C 2147 1650 t 0 r /Helvetica-Bold findfont 54.738 sf 0 0 m (Mean  ) show NC gr 
 gsave  2721 1845 0 0 C 2432 1650 t 0 r /Helvetica-Bold findfont 54.738 sf 0 0 m ( 0.01142) show NC gr 
 gsave  2721 1845 0 0 C 2147 1537 t 0 r /Helvetica-Bold findfont 54.738 sf 0 0 m (RMS   ) show NC gr 
 gsave  2721 1845 0 0 C 2432 1537 t 0 r /Helvetica-Bold findfont 54.738 sf 0 0 m ( 0.06321) show NC gr 
 gsave  2721 1845 0 0 C 2147 1427 t 0 r /Helvetica-Bold findfont 54.738 sf 0 0 m (Underflow ) show NC gr 
 gsave  2721 1845 0 0 C 2518 1427 t 0 r /Helvetica-Bold findfont 54.738 sf 0 0 m (      0) show NC gr 
 gsave  2721 1845 0 0 C 2147 1318 t 0 r /Helvetica-Bold findfont 54.738 sf 0 0 m (Overflow  ) show NC gr 
 gsave  2721 1845 0 0 C 2518 1318 t 0 r /Helvetica-Bold findfont 54.738 sf 0 0 m (      0) show NC gr 
 gsave  2721 1845 0 0 C 2147 1208 t 0 r /Helvetica-Bold findfont 54.738 sf 0 0 m (Integral ) show NC gr 
 gsave  2721 1845 0 0 C 2487 1204 t 0 r /Helvetica-Bold findfont 54.738 sf 0 0 m (    218) show NC gr  272 185 m 2177 X s
 gsave  2721 1845 0 0 C 2369 23 t 0 r /Helvetica-Bold findfont 70.3774 sf 0 0 m (an) show NC gr  368 229 m -44 Y s 432 207 m -22 Y s 496 207 m -22 Y s 560 207 m -22 Y s 624 207 m -22 Y s 688 229 m -44 Y s 752 207 m -22 Y s 816 207 m -22 Y s 880 207
 m -22 Y s 944 207 m -22 Y s 1008 229 m -44 Y s 1072 207 m -22 Y s 1137 207 m -22 Y s 1201 207 m -22 Y s 1265 207 m -22 Y s 1329 229 m -44 Y s 1393 207 m -22 Y s 1457 207 m -22 Y s 1521 207 m -22 Y s 1585 207 m -22 Y s 1649 229 m -44 Y s 1713 207 m
 -22 Y s 1777 207 m -22 Y s 1841 207 m -22 Y s 1905 207 m -22 Y s 1969 229 m -44 Y s 2033 207 m -22 Y s 2097 207 m -22 Y s 2161 207 m -22 Y s 2225 207 m -22 Y s 2289 229 m -44 Y s 368 229 m -44 Y s 304 207 m -22 Y s 2289 229 m -44 Y s 2353 207 m -22
 Y s 2417 207 m -22 Y s
 gsave  2721 1845 0 0 C 285 117 t 0 r /Helvetica-Bold findfont 70.3774 sf 0 0 m (\2550.15) show NC gr 
 gsave  2721 1845 0 0 C 629 117 t 0 r /Helvetica-Bold findfont 70.3774 sf 0 0 m (\2550.1) show NC gr 
 gsave  2721 1845 0 0 C 923 117 t 0 r /Helvetica-Bold findfont 70.3774 sf 0 0 m (\2550.05) show NC gr 
 gsave  2721 1845 0 0 C 1306 117 t 0 r /Helvetica-Bold findfont 70.3774 sf 0 0 m (0) show NC gr 
 gsave  2721 1845 0 0 C 1576 117 t 0 r /Helvetica-Bold findfont 70.3774 sf 0 0 m (0.05) show NC gr 
 gsave  2721 1845 0 0 C 1920 117 t 0 r /Helvetica-Bold findfont 70.3774 sf 0 0 m (0.1) show NC gr 
 gsave  2721 1845 0 0 C 2217 117 t 0 r /Helvetica-Bold findfont 70.3774 sf 0 0 m (0.15) show NC gr  272 185 m 1476 Y s 337 185 m -65 X s 305 228 m -33 X s 305 272 m -33 X s 305 316 m -33 X s 337 360 m -65 X s 305 404 m -33 X s 305 448 m -33 X s 305
 492 m -33 X s 337 536 m -65 X s 305 580 m -33 X s 305 624 m -33 X s 305 668 m -33 X s 337 712 m -65 X s 305 756 m -33 X s 305 800 m -33 X s 305 844 m -33 X s 337 888 m -65 X s 305 932 m -33 X s 305 975 m -33 X s 305 1019 m -33 X s 337 1063 m -65 X
 s 305 1107 m -33 X s 305 1151 m -33 X s 305 1195 m -33 X s 337 1239 m -65 X s 305 1283 m -33 X s 305 1327 m -33 X s 305 1371 m -33 X s 337 1415 m -65 X s 305 1459 m -33 X s 305 1503 m -33 X s 305 1547 m -33 X s 337 1591 m -65 X s 337 1591 m -65 X s
 305 1635 m -33 X s
 gsave  2721 1845 0 0 C 219 160 t 0 r /Helvetica-Bold findfont 70.3774 sf 0 0 m (0) show NC gr 
 gsave  2721 1845 0 0 C 219 336 t 0 r /Helvetica-Bold findfont 70.3774 sf 0 0 m (2) show NC gr 
 gsave  2721 1845 0 0 C 219 512 t 0 r /Helvetica-Bold findfont 70.3774 sf 0 0 m (4) show NC gr 
 gsave  2721 1845 0 0 C 219 688 t 0 r /Helvetica-Bold findfont 70.3774 sf 0 0 m (6) show NC gr 
 gsave  2721 1845 0 0 C 219 864 t 0 r /Helvetica-Bold findfont 70.3774 sf 0 0 m (8) show NC gr 
 gsave  2721 1845 0 0 C 180 1036 t 0 r /Helvetica-Bold findfont 70.3774 sf 0 0 m (10) show NC gr 
 gsave  2721 1845 0 0 C 180 1212 t 0 r /Helvetica-Bold findfont 70.3774 sf 0 0 m (12) show NC gr 
 gsave  2721 1845 0 0 C 180 1388 t 0 r /Helvetica-Bold findfont 70.3774 sf 0 0 m (14) show NC gr 
 gsave  2721 1845 0 0 C 180 1564 t 0 r /Helvetica-Bold findfont 70.3774 sf 0 0 m (16) show NC gr  0.999 0.999 0.999 c 544 664 2123 1172 bf black 2123 1172 m 544 X s 2667 1172 m 664 Y s 2667 1836 m -544 X s 2123 1836 m -664 Y s
 gsave  2721 1845 0 0 C 2147 1759 t 0 r /Helvetica-Bold findfont 54.738 sf 0 0 m (Entries ) show NC gr 
 gsave  2721 1845 0 0 C 2534 1759 t 0 r /Helvetica-Bold findfont 54.738 sf 0 0 m ( 218) show NC gr 
 gsave  2721 1845 0 0 C 2147 1650 t 0 r /Helvetica-Bold findfont 54.738 sf 0 0 m (Mean  ) show NC gr 
 gsave  2721 1845 0 0 C 2432 1650 t 0 r /Helvetica-Bold findfont 54.738 sf 0 0 m ( 0.01142) show NC gr 
 gsave  2721 1845 0 0 C 2147 1537 t 0 r /Helvetica-Bold findfont 54.738 sf 0 0 m (RMS   ) show NC gr 
 gsave  2721 1845 0 0 C 2432 1537 t 0 r /Helvetica-Bold findfont 54.738 sf 0 0 m ( 0.06321) show NC gr 
 gsave  2721 1845 0 0 C 2147 1427 t 0 r /Helvetica-Bold findfont 54.738 sf 0 0 m (Underflow ) show NC gr 
 gsave  2721 1845 0 0 C 2518 1427 t 0 r /Helvetica-Bold findfont 54.738 sf 0 0 m (      0) show NC gr 
 gsave  2721 1845 0 0 C 2147 1318 t 0 r /Helvetica-Bold findfont 54.738 sf 0 0 m (Overflow  ) show NC gr 
 gsave  2721 1845 0 0 C 2518 1318 t 0 r /Helvetica-Bold findfont 54.738 sf 0 0 m (      0) show NC gr 
 gsave  2721 1845 0 0 C 2147 1208 t 0 r /Helvetica-Bold findfont 54.738 sf 0 0 m (Integral ) show NC gr 
 gsave  2721 1845 0 0 C 2487 1204 t 0 r /Helvetica-Bold findfont 54.738 sf 0 0 m (    218) show NC gr  0.999 0.999 0.999 c 817 103 27 1733 bf black 27 1733 m 817 X s 844 1733 m 103 Y s 844 1836 m -817 X s 27 1836 m -103 Y s 1 1 1 c black
 gsave  2721 1845 0 0 C 70 1763 t 0 r /Helvetica-Bold findfont 82.107 sf 0 0 m (an {abs\(an\)>0.001}) show NC gr  gr 
showpage
 gr 
%%Trailer
%%Pages:  1
 gr  gr  gr 
%%EOF
