%!PS-Adobe-2.0 EPSF-2.0
%%BoundingBox:  0 0 567 384
%%Title: /direct/star+u/fazio/vbasym/macros/TracksInRecoil.eps: c1
%%Creator: ROOT Version 5.34/30
%%CreationDate: Mon Apr 25 10:04:52 2016
%%EndComments
%%BeginProlog
80 dict begin
/s {stroke} def /l {lineto} def /m {moveto} def /t {translate} def
/r {rotate} def /rl {roll}  def /R {repeat} def
/d {rlineto} def /rm {rmoveto} def /gr {grestore} def /f {eofill} def
/c {setrgbcolor} def /black {0 setgray} def /sd {setdash} def
/cl {closepath} def /sf {scalefont setfont} def /lw {setlinewidth} def
/box {m dup 0 exch d exch 0 d 0 exch neg d cl} def
/NC{systemdict begin initclip end}def/C{NC box clip newpath}def
/bl {box s} def /bf {gsave box gsave f grestore 1 lw [] 0 sd s grestore} def /Y { 0 exch d} def /X { 0 d} def 
/K {{pop pop 0 moveto} exch kshow} bind def
/ita {/ang 15 def gsave [1 0 ang dup sin exch cos div 1 0 0] concat} def 
/mp {newpath /y exch def /x exch def} def
/side {[w .77 mul w .23 mul] .385 w mul sd w 0 l currentpoint t -144 r} def
/mr {mp x y w2 0 360 arc} def /m24 {mr s} def /m20 {mr f} def
/mb {mp x y w2 add m w2 neg 0 d 0 w neg d w 0 d 0 w d cl} def
/mt {mp x y w2 add m w2 neg w neg d w 0 d cl} def
/m21 {mb f} def /m25 {mb s} def /m22 {mt f} def /m26{mt s} def
/m23 {mp x y w2 sub m w2 w d w neg 0 d cl f} def
/m27 {mp x y w2 add m w3 neg w2 neg d w3 w2 neg d w3 w2 d cl s} def
/m28 {mp x w2 sub y w2 sub w3 add m w3 0 d  0 w3 neg d w3 0 d 0 w3 d w3 0 d  0 w3 d w3 neg 0 d 0 w3 d w3 neg 0 d 0 w3 neg d w3 neg 0 d cl s } def
/m29 {mp gsave x w2 sub y w2 add w3 sub m currentpoint t 4 {side} repeat cl fill gr} def
/m30 {mp gsave x w2 sub y w2 add w3 sub m currentpoint t 4 {side} repeat cl s gr} def
/m31 {mp x y w2 sub m 0 w d x w2 sub y m w 0 d x w2 sub y w2 add m w w neg d x w2 sub y w2 sub m w w d s} def
/m32 {mp x y w2 sub m w2 w d w neg 0 d cl s} def
/m33 {mp x y w2 add m w3 neg w2 neg d w3 w2 neg d w3 w2 d cl f} def
/m34 {mp x w2 sub y w2 sub w3 add m w3 0 d  0 w3 neg d w3 0 d 0 w3 d w3 0 d  0 w3 d w3 neg 0 d 0 w3 d w3 neg 0 d 0 w3 neg d w3 neg 0 d cl f } def
/m2 {mp x y w2 sub m 0 w d x w2 sub y m w 0 d s} def
/m5 {mp x w2 sub y w2 sub m w w d x w2 sub y w2 add m w w neg d s} def
/reEncode {exch findfont dup length dict begin {1 index /FID eq  {pop pop} {def} ifelse } forall /Encoding exch def currentdict end dup /FontName get exch definefont pop } def [/Times-Bold /Times-Italic /Times-BoldItalic /Helvetica /Helvetica-Oblique
 /Helvetica-Bold /Helvetica-BoldOblique /Courier /Courier-Oblique /Courier-Bold /Courier-BoldOblique /Times-Roman /AvantGarde-Book /AvantGarde-BookOblique /AvantGarde-Demi /AvantGarde-DemiOblique /Bookman-Demi /Bookman-DemiItalic /Bookman-Light
 /Bookman-LightItalic /Helvetica-Narrow /Helvetica-Narrow-Bold /Helvetica-Narrow-BoldOblique /Helvetica-Narrow-Oblique /NewCenturySchlbk-Roman /NewCenturySchlbk-Bold /NewCenturySchlbk-BoldItalic /NewCenturySchlbk-Italic /Palatino-Bold
 /Palatino-BoldItalic /Palatino-Italic /Palatino-Roman ] {ISOLatin1Encoding reEncode } forall
%%EndProlog
%%BeginSetup
%%EndSetup
newpath  gsave  .25 .25 scale  gsave  0 0 t black[  ] 0 sd 3 lw 0.999 0.999 0.999 c 2268 1538 0 0 bf black
 gsave  2268 1538 0 0 C 22.6772 15.3788 t 0 r /Helvetica-Bold findfont 35.8403 sf 0 0 m (Mon Apr 25 10:04:52 2016) show NC gr  0.999 0.999 0.999 c 1815 1229 225 156 bf black 1815 1229 225 156 bl 0.999 0.999 0.999 c 1815 1229 225 156 bf black 1815
 1229 225 156 bl 225 156 m 1815 X s[ 4 8] 0 sd 225 1385 m -1229 Y s 588 1385 m -1229 Y s 951 1385 m -1229 Y s 1314 1385 m -1229 Y s 1677 1385 m -1229 Y s 2040 1385 m -1229 Y s[  ] 0 sd 225 156 m 1229 Y s[ 4 8] 0 sd 2040 156 m -1815 X s 2040 321 m
 -1815 X s 2040 486 m -1815 X s 2040 651 m -1815 X s 2040 815 m -1815 X s 2040 980 m -1815 X s 2040 1145 m -1815 X s 2040 1310 m -1815 X s 2040 1310 m -1815 X s[  ] 0 sd 1 1 0 c black 1 1 0 c 225 156 m 72 X 66 Y 37 X 83 Y 36 X 49 Y 36 X 33 Y 37 X 50
 Y 36 X 131 Y 36 X 231 Y 36 X -49 Y 37 X 181 Y 36 X 214 Y 36 X -66 Y 37 X -33 Y 36 X 66 Y 36 X 132 Y 37 X -50 Y 36 X 99 Y 36 X 33 Y 36 X -181 Y 37 X 181 Y 36 X -33 Y 36 X -132 Y 37 X -131 Y 36 X 49 Y 36 X -49 Y 37 X -165 Y 36 X -115 Y 36 X 131 Y 36 X
 -115 Y 37 X -181 Y 36 X 148 Y 36 X -231 Y 37 X -33 Y 72 X 116 Y 36 X -181 Y 37 X -33 Y 72 X -132 Y 37 X 33 Y 36 X 16 Y 36 X 66 Y 37 X -148 Y 36 X 66 Y 36 X -66 Y 109 X 66 Y 36 X -83 Y 37 X -33 Y f black 1 1 0 c black 225 156 m 72 X 66 Y 37 X 83 Y 36
 X 49 Y 36 X 33 Y 37 X 50 Y 36 X 131 Y 36 X 231 Y 36 X -49 Y 37 X 181 Y 36 X 214 Y 36 X -66 Y 37 X -33 Y 36 X 66 Y 36 X 132 Y 37 X -50 Y 36 X 99 Y 36 X 33 Y 36 X -181 Y 37 X 181 Y 36 X -33 Y 36 X -132 Y 37 X -131 Y 36 X 49 Y 36 X -49 Y 37 X -165 Y 36
 X -115 Y 36 X 131 Y 36 X -115 Y 37 X -181 Y 36 X 148 Y 36 X -231 Y 37 X -33 Y 72 X 116 Y 36 X -181 Y 37 X -33 Y 72 X -132 Y 37 X 33 Y 36 X 16 Y 36 X 66 Y 37 X -148 Y 36 X 66 Y 36 X -66 Y 109 X 66 Y 36 X -83 Y 37 X s 225 156 m 1815 X s
 gsave  2268 1538 0 0 C 1241.38 6.51643 t 0 r /Helvetica findfont 71.6807 sf 0 0 m ( Num. of Tracks in Recoil) show NC gr  225 193 m -37 Y s 297 175 m -19 Y s 370 175 m -19 Y s 443 175 m -19 Y s 515 175 m -19 Y s 588 193 m -37 Y s 660 175 m -19 Y s
 733 175 m -19 Y s 806 175 m -19 Y s 878 175 m -19 Y s 951 193 m -37 Y s 1023 175 m -19 Y s 1096 175 m -19 Y s 1169 175 m -19 Y s 1241 175 m -19 Y s 1314 193 m -37 Y s 1386 175 m -19 Y s 1459 175 m -19 Y s 1531 175 m -19 Y s 1604 175 m -19 Y s 1677
 193 m -37 Y s 1749 175 m -19 Y s 1822 175 m -19 Y s 1894 175 m -19 Y s 1967 175 m -19 Y s 2040 193 m -37 Y s
 gsave  2268 1538 0 0 C 205.267 87.9718 t 0 r /Helvetica findfont 71.6807 sf 0 0 m (0) show NC gr 
 gsave  2268 1538 0 0 C 547.38 87.9718 t 0 r /Helvetica findfont 71.6807 sf 0 0 m (10) show NC gr 
 gsave  2268 1538 0 0 C 909.042 87.9718 t 0 r /Helvetica findfont 71.6807 sf 0 0 m (20) show NC gr 
 gsave  2268 1538 0 0 C 1273.96 87.9718 t 0 r /Helvetica findfont 71.6807 sf 0 0 m (30) show NC gr 
 gsave  2268 1538 0 0 C 1635.62 87.9718 t 0 r /Helvetica findfont 71.6807 sf 0 0 m (40) show NC gr 
 gsave  2268 1538 0 0 C 2000.54 87.9718 t 0 r /Helvetica findfont 71.6807 sf 0 0 m (50) show NC gr  225 156 m 1229 Y s
 gsave  2268 1538 0 0 C 104.263 1146.89 t 90 r /Helvetica findfont 71.6807 sf 0 0 m ( Events) show NC gr  279 156 m -54 X s 252 189 m -27 X s 252 222 m -27 X s 252 255 m -27 X s 252 288 m -27 X s 279 321 m -54 X s 252 354 m -27 X s 252 387 m -27 X s
 252 420 m -27 X s 252 453 m -27 X s 279 486 m -54 X s 252 519 m -27 X s 252 552 m -27 X s 252 585 m -27 X s 252 618 m -27 X s 279 651 m -54 X s 252 684 m -27 X s 252 717 m -27 X s 252 750 m -27 X s 252 783 m -27 X s 279 815 m -54 X s 252 848 m -27 X
 s 252 881 m -27 X s 252 914 m -27 X s 252 947 m -27 X s 279 980 m -54 X s 252 1013 m -27 X s 252 1046 m -27 X s 252 1079 m -27 X s 252 1112 m -27 X s 279 1145 m -54 X s 252 1178 m -27 X s 252 1211 m -27 X s 252 1244 m -27 X s 252 1277 m -27 X s 279
 1310 m -54 X s 279 1310 m -54 X s 252 1343 m -27 X s 252 1376 m -27 X s
 gsave  2268 1538 0 0 C 172.685 130.329 t 0 r /Helvetica findfont 71.6807 sf 0 0 m (0) show NC gr 
 gsave  2268 1538 0 0 C 133.587 296.497 t 0 r /Helvetica findfont 71.6807 sf 0 0 m (10) show NC gr 
 gsave  2268 1538 0 0 C 133.587 462.666 t 0 r /Helvetica findfont 71.6807 sf 0 0 m (20) show NC gr 
 gsave  2268 1538 0 0 C 133.587 625.577 t 0 r /Helvetica findfont 71.6807 sf 0 0 m (30) show NC gr 
 gsave  2268 1538 0 0 C 133.587 791.746 t 0 r /Helvetica findfont 71.6807 sf 0 0 m (40) show NC gr 
 gsave  2268 1538 0 0 C 133.587 954.656 t 0 r /Helvetica findfont 71.6807 sf 0 0 m (50) show NC gr 
 gsave  2268 1538 0 0 C 133.587 1120.83 t 0 r /Helvetica findfont 71.6807 sf 0 0 m (60) show NC gr 
 gsave  2268 1538 0 0 C 133.587 1283.74 t 0 r /Helvetica findfont 71.6807 sf 0 0 m (70) show NC gr  0.999 0.999 0.999 c 453 553 1769 977 bf black 1769 977 m 453 X s 2222 977 m 553 Y s 2222 1530 m -453 X s 1769 1530 m -553 Y s
 gsave  2268 1538 0 0 C 1788.76 1466.2 t 0 r /Helvetica-Bold findfont 45.615 sf 0 0 m (Entries ) show NC gr 
 gsave  2268 1538 0 0 C 2085.26 1466.2 t 0 r /Helvetica-Bold findfont 45.615 sf 0 0 m ( 1549) show NC gr 
 gsave  2268 1538 0 0 C 1788.76 1374.97 t 0 r /Helvetica-Bold findfont 45.615 sf 0 0 m (Mean  ) show NC gr 
 gsave  2268 1538 0 0 C 2059.19 1374.97 t 0 r /Helvetica-Bold findfont 45.615 sf 0 0 m (  20.45) show NC gr 
 gsave  2268 1538 0 0 C 1788.76 1280.48 t 0 r /Helvetica-Bold findfont 45.615 sf 0 0 m (RMS   ) show NC gr 
 gsave  2268 1538 0 0 C 2059.19 1280.48 t 0 r /Helvetica-Bold findfont 45.615 sf 0 0 m (  9.155) show NC gr 
 gsave  2268 1538 0 0 C 1788.76 1189.25 t 0 r /Helvetica-Bold findfont 45.615 sf 0 0 m (Underflow ) show NC gr 
 gsave  2268 1538 0 0 C 2098.29 1189.25 t 0 r /Helvetica-Bold findfont 45.615 sf 0 0 m (      0) show NC gr 
 gsave  2268 1538 0 0 C 1788.76 1098.02 t 0 r /Helvetica-Bold findfont 45.615 sf 0 0 m (Overflow  ) show NC gr 
 gsave  2268 1538 0 0 C 2085.26 1098.02 t 0 r /Helvetica-Bold findfont 45.615 sf 0 0 m (     19) show NC gr 
 gsave  2268 1538 0 0 C 1788.76 1010.05 t 0 r /Helvetica-Bold findfont 45.615 sf 0 0 m (Integral ) show NC gr 
 gsave  2268 1538 0 0 C 2059.19 1003.53 t 0 r /Helvetica-Bold findfont 45.615 sf 0 0 m (   1530) show NC gr 
 gr  gr showpage
end
%%EOF
